-- Merging decision tree log ---
manifest
ADDED from /Users/biche/Projects/pwa/omdb2/app/src/main/AndroidManifest.xml:22:1-175:12
INJECTED from /Users/biche/Projects/pwa/omdb2/app/src/main/AndroidManifest.xml:22:1-175:12
INJECTED from /Users/biche/Projects/pwa/omdb2/app/src/main/AndroidManifest.xml:22:1-175:12
INJECTED from /Users/biche/Projects/pwa/omdb2/app/src/main/AndroidManifest.xml:22:1-175:12
MERGED from [com.google.androidbrowserhelper:androidbrowserhelper:2.4.0] /Users/biche/.gradle/caches/transforms-2/files-2.1/2a4780e5ae3e94fb64dd0623d9799b3d/androidbrowserhelper-2.4.0/AndroidManifest.xml:17:1-36:12
MERGED from [androidx.browser:browser:1.4.0] /Users/biche/.gradle/caches/transforms-2/files-2.1/b76183546e9802347e4b2c9dd5e9649b/browser-1.4.0/AndroidManifest.xml:17:1-24:12
MERGED from [androidx.core:core:1.1.0] /Users/biche/.gradle/caches/transforms-2/files-2.1/e601daed4ba62929db8b322b2974c8f8/core-1.1.0/AndroidManifest.xml:17:1-26:12
MERGED from [androidx.versionedparcelable:versionedparcelable:1.1.0] /Users/biche/.gradle/caches/transforms-2/files-2.1/90ecde5404179819368e2359ab771b50/versionedparcelable-1.1.0/AndroidManifest.xml:17:1-27:12
MERGED from [androidx.interpolator:interpolator:1.0.0] /Users/biche/.gradle/caches/transforms-2/files-2.1/722883bbeda4a23af2c332d7342ff3d3/interpolator-1.0.0/AndroidManifest.xml:17:1-22:12
MERGED from [androidx.lifecycle:lifecycle-runtime:2.0.0] /Users/biche/.gradle/caches/transforms-2/files-2.1/1fed12a61eaf3956026778ada29c2705/lifecycle-runtime-2.0.0/AndroidManifest.xml:17:1-22:12
INJECTED from /Users/biche/Projects/pwa/omdb2/app/src/main/AndroidManifest.xml:22:1-175:12
INJECTED from /Users/biche/Projects/pwa/omdb2/app/src/main/AndroidManifest.xml:22:1-175:12
INJECTED from /Users/biche/Projects/pwa/omdb2/app/src/main/AndroidManifest.xml:22:1-175:12
	package
		ADDED from /Users/biche/Projects/pwa/omdb2/app/src/main/AndroidManifest.xml:23:5-32
		INJECTED from /Users/biche/Projects/pwa/omdb2/app/src/main/AndroidManifest.xml
		INJECTED from /Users/biche/Projects/pwa/omdb2/app/src/main/AndroidManifest.xml
	android:versionName
		INJECTED from /Users/biche/Projects/pwa/omdb2/app/src/main/AndroidManifest.xml
		ADDED from /Users/biche/Projects/pwa/omdb2/app/src/main/AndroidManifest.xml:22:1-175:12
		INJECTED from /Users/biche/Projects/pwa/omdb2/app/src/main/AndroidManifest.xml
	android:versionCode
		INJECTED from /Users/biche/Projects/pwa/omdb2/app/src/main/AndroidManifest.xml
		ADDED from /Users/biche/Projects/pwa/omdb2/app/src/main/AndroidManifest.xml:22:1-175:12
		INJECTED from /Users/biche/Projects/pwa/omdb2/app/src/main/AndroidManifest.xml
	xmlns:android
		ADDED from /Users/biche/Projects/pwa/omdb2/app/src/main/AndroidManifest.xml:22:11-69
application
ADDED from /Users/biche/Projects/pwa/omdb2/app/src/main/AndroidManifest.xml:33:5-174:19
MERGED from [androidx.core:core:1.1.0] /Users/biche/.gradle/caches/transforms-2/files-2.1/e601daed4ba62929db8b322b2974c8f8/core-1.1.0/AndroidManifest.xml:24:5-89
MERGED from [androidx.core:core:1.1.0] /Users/biche/.gradle/caches/transforms-2/files-2.1/e601daed4ba62929db8b322b2974c8f8/core-1.1.0/AndroidManifest.xml:24:5-89
MERGED from [androidx.versionedparcelable:versionedparcelable:1.1.0] /Users/biche/.gradle/caches/transforms-2/files-2.1/90ecde5404179819368e2359ab771b50/versionedparcelable-1.1.0/AndroidManifest.xml:24:5-25:19
MERGED from [androidx.versionedparcelable:versionedparcelable:1.1.0] /Users/biche/.gradle/caches/transforms-2/files-2.1/90ecde5404179819368e2359ab771b50/versionedparcelable-1.1.0/AndroidManifest.xml:24:5-25:19
	android:appComponentFactory
		ADDED from [androidx.core:core:1.1.0] /Users/biche/.gradle/caches/transforms-2/files-2.1/e601daed4ba62929db8b322b2974c8f8/core-1.1.0/AndroidManifest.xml:24:18-86
	android:supportsRtl
		ADDED from /Users/biche/Projects/pwa/omdb2/app/src/main/AndroidManifest.xml:41:9-35
	android:label
		ADDED from /Users/biche/Projects/pwa/omdb2/app/src/main/AndroidManifest.xml:37:9-40
	android:manageSpaceActivity
		ADDED from /Users/biche/Projects/pwa/omdb2/app/src/main/AndroidManifest.xml:39:9-105
	android:icon
		ADDED from /Users/biche/Projects/pwa/omdb2/app/src/main/AndroidManifest.xml:36:9-43
	android:allowBackup
		ADDED from /Users/biche/Projects/pwa/omdb2/app/src/main/AndroidManifest.xml:35:9-35
	android:theme
		ADDED from /Users/biche/Projects/pwa/omdb2/app/src/main/AndroidManifest.xml:42:9-68
	android:name
		ADDED from /Users/biche/Projects/pwa/omdb2/app/src/main/AndroidManifest.xml:34:9-35
meta-data#asset_statements
ADDED from /Users/biche/Projects/pwa/omdb2/app/src/main/AndroidManifest.xml:44:9-46:58
	android:resource
		ADDED from /Users/biche/Projects/pwa/omdb2/app/src/main/AndroidManifest.xml:46:13-55
	android:name
		ADDED from /Users/biche/Projects/pwa/omdb2/app/src/main/AndroidManifest.xml:45:13-44
meta-data#web_manifest_url
ADDED from /Users/biche/Projects/pwa/omdb2/app/src/main/AndroidManifest.xml:49:13-51:58
	android:value
		ADDED from /Users/biche/Projects/pwa/omdb2/app/src/main/AndroidManifest.xml:51:17-55
	android:name
		ADDED from /Users/biche/Projects/pwa/omdb2/app/src/main/AndroidManifest.xml:50:17-48
meta-data#twa_generator
ADDED from /Users/biche/Projects/pwa/omdb2/app/src/main/AndroidManifest.xml:54:9-56:52
	android:value
		ADDED from /Users/biche/Projects/pwa/omdb2/app/src/main/AndroidManifest.xml:56:13-49
	android:name
		ADDED from /Users/biche/Projects/pwa/omdb2/app/src/main/AndroidManifest.xml:55:13-41
activity#com.google.androidbrowserhelper.trusted.ManageDataLauncherActivity
ADDED from /Users/biche/Projects/pwa/omdb2/app/src/main/AndroidManifest.xml:63:13-67:24
	android:name
		ADDED from /Users/biche/Projects/pwa/omdb2/app/src/main/AndroidManifest.xml:63:23-104
meta-data#android.support.customtabs.trusted.MANAGE_SPACE_URL
ADDED from /Users/biche/Projects/pwa/omdb2/app/src/main/AndroidManifest.xml:64:13-66:53
	android:value
		ADDED from /Users/biche/Projects/pwa/omdb2/app/src/main/AndroidManifest.xml:66:17-50
	android:name
		ADDED from /Users/biche/Projects/pwa/omdb2/app/src/main/AndroidManifest.xml:65:17-83
activity#com.airhorner.twa.LauncherActivity
ADDED from /Users/biche/Projects/pwa/omdb2/app/src/main/AndroidManifest.xml:70:9-139:20
	android:label
		ADDED from /Users/biche/Projects/pwa/omdb2/app/src/main/AndroidManifest.xml:72:13-49
	android:exported
		ADDED from /Users/biche/Projects/pwa/omdb2/app/src/main/AndroidManifest.xml:73:13-36
	android:alwaysRetainTaskState
		ADDED from /Users/biche/Projects/pwa/omdb2/app/src/main/AndroidManifest.xml:71:13-49
	android:name
		ADDED from /Users/biche/Projects/pwa/omdb2/app/src/main/AndroidManifest.xml:70:19-50
meta-data#android.support.customtabs.trusted.DEFAULT_URL
ADDED from /Users/biche/Projects/pwa/omdb2/app/src/main/AndroidManifest.xml:74:13-75:53
	android:value
		ADDED from /Users/biche/Projects/pwa/omdb2/app/src/main/AndroidManifest.xml:75:17-50
	android:name
		ADDED from /Users/biche/Projects/pwa/omdb2/app/src/main/AndroidManifest.xml:74:24-85
meta-data#android.support.customtabs.trusted.STATUS_BAR_COLOR
ADDED from /Users/biche/Projects/pwa/omdb2/app/src/main/AndroidManifest.xml:77:13-79:58
	android:resource
		ADDED from /Users/biche/Projects/pwa/omdb2/app/src/main/AndroidManifest.xml:79:17-55
	android:name
		ADDED from /Users/biche/Projects/pwa/omdb2/app/src/main/AndroidManifest.xml:78:17-83
meta-data#android.support.customtabs.trusted.NAVIGATION_BAR_COLOR
ADDED from /Users/biche/Projects/pwa/omdb2/app/src/main/AndroidManifest.xml:81:13-83:61
	android:resource
		ADDED from /Users/biche/Projects/pwa/omdb2/app/src/main/AndroidManifest.xml:83:17-58
	android:name
		ADDED from /Users/biche/Projects/pwa/omdb2/app/src/main/AndroidManifest.xml:82:17-87
meta-data#android.support.customtabs.trusted.NAVIGATION_BAR_COLOR_DARK
ADDED from /Users/biche/Projects/pwa/omdb2/app/src/main/AndroidManifest.xml:85:13-87:65
	android:resource
		ADDED from /Users/biche/Projects/pwa/omdb2/app/src/main/AndroidManifest.xml:87:17-62
	android:name
		ADDED from /Users/biche/Projects/pwa/omdb2/app/src/main/AndroidManifest.xml:86:17-92
meta-data#androix.browser.trusted.NAVIGATION_BAR_DIVIDER_COLOR
ADDED from /Users/biche/Projects/pwa/omdb2/app/src/main/AndroidManifest.xml:89:13-91:68
	android:resource
		ADDED from /Users/biche/Projects/pwa/omdb2/app/src/main/AndroidManifest.xml:91:17-65
	android:name
		ADDED from /Users/biche/Projects/pwa/omdb2/app/src/main/AndroidManifest.xml:90:17-84
meta-data#androix.browser.trusted.NAVIGATION_BAR_DIVIDER_COLOR_DARK
ADDED from /Users/biche/Projects/pwa/omdb2/app/src/main/AndroidManifest.xml:93:13-95:72
	android:resource
		ADDED from /Users/biche/Projects/pwa/omdb2/app/src/main/AndroidManifest.xml:95:17-69
	android:name
		ADDED from /Users/biche/Projects/pwa/omdb2/app/src/main/AndroidManifest.xml:94:17-89
meta-data#android.support.customtabs.trusted.SPLASH_IMAGE_DRAWABLE
ADDED from /Users/biche/Projects/pwa/omdb2/app/src/main/AndroidManifest.xml:97:13-98:54
	android:resource
		ADDED from /Users/biche/Projects/pwa/omdb2/app/src/main/AndroidManifest.xml:98:17-52
	android:name
		ADDED from /Users/biche/Projects/pwa/omdb2/app/src/main/AndroidManifest.xml:97:24-95
meta-data#android.support.customtabs.trusted.SPLASH_SCREEN_BACKGROUND_COLOR
ADDED from /Users/biche/Projects/pwa/omdb2/app/src/main/AndroidManifest.xml:100:13-101:60
	android:resource
		ADDED from /Users/biche/Projects/pwa/omdb2/app/src/main/AndroidManifest.xml:101:17-58
	android:name
		ADDED from /Users/biche/Projects/pwa/omdb2/app/src/main/AndroidManifest.xml:100:24-104
meta-data#android.support.customtabs.trusted.SPLASH_SCREEN_FADE_OUT_DURATION
ADDED from /Users/biche/Projects/pwa/omdb2/app/src/main/AndroidManifest.xml:103:13-104:71
	android:value
		ADDED from /Users/biche/Projects/pwa/omdb2/app/src/main/AndroidManifest.xml:104:17-69
	android:name
		ADDED from /Users/biche/Projects/pwa/omdb2/app/src/main/AndroidManifest.xml:103:24-105
meta-data#android.support.customtabs.trusted.FILE_PROVIDER_AUTHORITY
ADDED from /Users/biche/Projects/pwa/omdb2/app/src/main/AndroidManifest.xml:106:13-107:60
	android:value
		ADDED from /Users/biche/Projects/pwa/omdb2/app/src/main/AndroidManifest.xml:107:17-58
	android:name
		ADDED from /Users/biche/Projects/pwa/omdb2/app/src/main/AndroidManifest.xml:106:24-97
meta-data#android.app.shortcuts
ADDED from /Users/biche/Projects/pwa/omdb2/app/src/main/AndroidManifest.xml:109:13-97
	android:resource
		ADDED from /Users/biche/Projects/pwa/omdb2/app/src/main/AndroidManifest.xml:109:61-94
	android:name
		ADDED from /Users/biche/Projects/pwa/omdb2/app/src/main/AndroidManifest.xml:109:24-60
meta-data#android.support.customtabs.trusted.FALLBACK_STRATEGY
ADDED from /Users/biche/Projects/pwa/omdb2/app/src/main/AndroidManifest.xml:111:13-112:56
	android:value
		ADDED from /Users/biche/Projects/pwa/omdb2/app/src/main/AndroidManifest.xml:112:17-53
	android:name
		ADDED from /Users/biche/Projects/pwa/omdb2/app/src/main/AndroidManifest.xml:111:24-91
meta-data#android.support.customtabs.trusted.SCREEN_ORIENTATION
ADDED from /Users/biche/Projects/pwa/omdb2/app/src/main/AndroidManifest.xml:118:13-119:54
	android:value
		ADDED from /Users/biche/Projects/pwa/omdb2/app/src/main/AndroidManifest.xml:119:17-52
	android:name
		ADDED from /Users/biche/Projects/pwa/omdb2/app/src/main/AndroidManifest.xml:118:24-92
intent-filter#action:name:android.intent.action.MAIN+category:name:android.intent.category.LAUNCHER
ADDED from /Users/biche/Projects/pwa/omdb2/app/src/main/AndroidManifest.xml:125:13-128:29
action#android.intent.action.MAIN
ADDED from /Users/biche/Projects/pwa/omdb2/app/src/main/AndroidManifest.xml:126:17-69
	android:name
		ADDED from /Users/biche/Projects/pwa/omdb2/app/src/main/AndroidManifest.xml:126:25-66
category#android.intent.category.LAUNCHER
ADDED from /Users/biche/Projects/pwa/omdb2/app/src/main/AndroidManifest.xml:127:17-77
	android:name
		ADDED from /Users/biche/Projects/pwa/omdb2/app/src/main/AndroidManifest.xml:127:27-74
intent-filter#action:name:android.intent.action.VIEW+category:name:android.intent.category.BROWSABLE+category:name:android.intent.category.DEFAULT+data:host:@string/hostName+data:scheme:https
ADDED from /Users/biche/Projects/pwa/omdb2/app/src/main/AndroidManifest.xml:130:13-136:29
	android:autoVerify
		ADDED from /Users/biche/Projects/pwa/omdb2/app/src/main/AndroidManifest.xml:130:28-53
action#android.intent.action.VIEW
ADDED from /Users/biche/Projects/pwa/omdb2/app/src/main/AndroidManifest.xml:131:17-68
	android:name
		ADDED from /Users/biche/Projects/pwa/omdb2/app/src/main/AndroidManifest.xml:131:25-66
category#android.intent.category.DEFAULT
ADDED from /Users/biche/Projects/pwa/omdb2/app/src/main/AndroidManifest.xml:132:17-76
	android:name
		ADDED from /Users/biche/Projects/pwa/omdb2/app/src/main/AndroidManifest.xml:132:27-73
category#android.intent.category.BROWSABLE
ADDED from /Users/biche/Projects/pwa/omdb2/app/src/main/AndroidManifest.xml:133:17-77
	android:name
		ADDED from /Users/biche/Projects/pwa/omdb2/app/src/main/AndroidManifest.xml:133:27-75
data
ADDED from /Users/biche/Projects/pwa/omdb2/app/src/main/AndroidManifest.xml:134:17-135:54
	android:host
		ADDED from /Users/biche/Projects/pwa/omdb2/app/src/main/AndroidManifest.xml:135:21-52
	android:scheme
		ADDED from /Users/biche/Projects/pwa/omdb2/app/src/main/AndroidManifest.xml:134:23-45
activity#com.google.androidbrowserhelper.trusted.FocusActivity
ADDED from /Users/biche/Projects/pwa/omdb2/app/src/main/AndroidManifest.xml:141:9-90
	android:name
		ADDED from /Users/biche/Projects/pwa/omdb2/app/src/main/AndroidManifest.xml:141:19-87
activity#com.google.androidbrowserhelper.trusted.WebViewFallbackActivity
ADDED from /Users/biche/Projects/pwa/omdb2/app/src/main/AndroidManifest.xml:143:9-144:62
	android:configChanges
		ADDED from /Users/biche/Projects/pwa/omdb2/app/src/main/AndroidManifest.xml:144:13-59
	android:name
		ADDED from /Users/biche/Projects/pwa/omdb2/app/src/main/AndroidManifest.xml:143:19-97
provider#androidx.core.content.FileProvider
ADDED from /Users/biche/Projects/pwa/omdb2/app/src/main/AndroidManifest.xml:146:9-154:20
	android:grantUriPermissions
		ADDED from /Users/biche/Projects/pwa/omdb2/app/src/main/AndroidManifest.xml:149:13-47
	android:authorities
		ADDED from /Users/biche/Projects/pwa/omdb2/app/src/main/AndroidManifest.xml:148:13-60
	android:exported
		ADDED from /Users/biche/Projects/pwa/omdb2/app/src/main/AndroidManifest.xml:150:13-37
	android:name
		ADDED from /Users/biche/Projects/pwa/omdb2/app/src/main/AndroidManifest.xml:147:13-62
meta-data#android.support.FILE_PROVIDER_PATHS
ADDED from /Users/biche/Projects/pwa/omdb2/app/src/main/AndroidManifest.xml:151:13-153:53
	android:resource
		ADDED from /Users/biche/Projects/pwa/omdb2/app/src/main/AndroidManifest.xml:153:17-50
	android:name
		ADDED from /Users/biche/Projects/pwa/omdb2/app/src/main/AndroidManifest.xml:152:17-67
service#com.airhorner.twa.DelegationService
ADDED from /Users/biche/Projects/pwa/omdb2/app/src/main/AndroidManifest.xml:156:9-171:19
	android:enabled
		ADDED from /Users/biche/Projects/pwa/omdb2/app/src/main/AndroidManifest.xml:158:13-55
	android:exported
		ADDED from /Users/biche/Projects/pwa/omdb2/app/src/main/AndroidManifest.xml:159:13-56
	android:name
		ADDED from /Users/biche/Projects/pwa/omdb2/app/src/main/AndroidManifest.xml:157:13-46
meta-data#android.support.customtabs.trusted.SMALL_ICON
ADDED from /Users/biche/Projects/pwa/omdb2/app/src/main/AndroidManifest.xml:162:17-164:73
	android:resource
		ADDED from /Users/biche/Projects/pwa/omdb2/app/src/main/AndroidManifest.xml:164:21-70
	android:name
		ADDED from /Users/biche/Projects/pwa/omdb2/app/src/main/AndroidManifest.xml:163:21-81
intent-filter#action:name:android.support.customtabs.trusted.TRUSTED_WEB_ACTIVITY_SERVICE+category:name:android.intent.category.DEFAULT
ADDED from /Users/biche/Projects/pwa/omdb2/app/src/main/AndroidManifest.xml:167:13-170:29
action#android.support.customtabs.trusted.TRUSTED_WEB_ACTIVITY_SERVICE
ADDED from /Users/biche/Projects/pwa/omdb2/app/src/main/AndroidManifest.xml:168:17-105
	android:name
		ADDED from /Users/biche/Projects/pwa/omdb2/app/src/main/AndroidManifest.xml:168:25-103
uses-sdk
INJECTED from /Users/biche/Projects/pwa/omdb2/app/src/main/AndroidManifest.xml reason: use-sdk injection requested
INJECTED from /Users/biche/Projects/pwa/omdb2/app/src/main/AndroidManifest.xml
INJECTED from /Users/biche/Projects/pwa/omdb2/app/src/main/AndroidManifest.xml
MERGED from [com.google.androidbrowserhelper:androidbrowserhelper:2.4.0] /Users/biche/.gradle/caches/transforms-2/files-2.1/2a4780e5ae3e94fb64dd0623d9799b3d/androidbrowserhelper-2.4.0/AndroidManifest.xml:22:5-24:41
MERGED from [com.google.androidbrowserhelper:androidbrowserhelper:2.4.0] /Users/biche/.gradle/caches/transforms-2/files-2.1/2a4780e5ae3e94fb64dd0623d9799b3d/androidbrowserhelper-2.4.0/AndroidManifest.xml:22:5-24:41
MERGED from [androidx.browser:browser:1.4.0] /Users/biche/.gradle/caches/transforms-2/files-2.1/b76183546e9802347e4b2c9dd5e9649b/browser-1.4.0/AndroidManifest.xml:20:5-22:41
MERGED from [androidx.browser:browser:1.4.0] /Users/biche/.gradle/caches/transforms-2/files-2.1/b76183546e9802347e4b2c9dd5e9649b/browser-1.4.0/AndroidManifest.xml:20:5-22:41
MERGED from [androidx.core:core:1.1.0] /Users/biche/.gradle/caches/transforms-2/files-2.1/e601daed4ba62929db8b322b2974c8f8/core-1.1.0/AndroidManifest.xml:20:5-22:41
MERGED from [androidx.core:core:1.1.0] /Users/biche/.gradle/caches/transforms-2/files-2.1/e601daed4ba62929db8b322b2974c8f8/core-1.1.0/AndroidManifest.xml:20:5-22:41
MERGED from [androidx.versionedparcelable:versionedparcelable:1.1.0] /Users/biche/.gradle/caches/transforms-2/files-2.1/90ecde5404179819368e2359ab771b50/versionedparcelable-1.1.0/AndroidManifest.xml:20:5-22:41
MERGED from [androidx.versionedparcelable:versionedparcelable:1.1.0] /Users/biche/.gradle/caches/transforms-2/files-2.1/90ecde5404179819368e2359ab771b50/versionedparcelable-1.1.0/AndroidManifest.xml:20:5-22:41
MERGED from [androidx.interpolator:interpolator:1.0.0] /Users/biche/.gradle/caches/transforms-2/files-2.1/722883bbeda4a23af2c332d7342ff3d3/interpolator-1.0.0/AndroidManifest.xml:20:5-44
MERGED from [androidx.interpolator:interpolator:1.0.0] /Users/biche/.gradle/caches/transforms-2/files-2.1/722883bbeda4a23af2c332d7342ff3d3/interpolator-1.0.0/AndroidManifest.xml:20:5-44
MERGED from [androidx.lifecycle:lifecycle-runtime:2.0.0] /Users/biche/.gradle/caches/transforms-2/files-2.1/1fed12a61eaf3956026778ada29c2705/lifecycle-runtime-2.0.0/AndroidManifest.xml:20:5-44
MERGED from [androidx.lifecycle:lifecycle-runtime:2.0.0] /Users/biche/.gradle/caches/transforms-2/files-2.1/1fed12a61eaf3956026778ada29c2705/lifecycle-runtime-2.0.0/AndroidManifest.xml:20:5-44
INJECTED from /Users/biche/Projects/pwa/omdb2/app/src/main/AndroidManifest.xml
INJECTED from /Users/biche/Projects/pwa/omdb2/app/src/main/AndroidManifest.xml
	android:targetSdkVersion
		INJECTED from /Users/biche/Projects/pwa/omdb2/app/src/main/AndroidManifest.xml
		ADDED from /Users/biche/Projects/pwa/omdb2/app/src/main/AndroidManifest.xml
		INJECTED from /Users/biche/Projects/pwa/omdb2/app/src/main/AndroidManifest.xml
	android:minSdkVersion
		INJECTED from /Users/biche/Projects/pwa/omdb2/app/src/main/AndroidManifest.xml
		ADDED from /Users/biche/Projects/pwa/omdb2/app/src/main/AndroidManifest.xml
		INJECTED from /Users/biche/Projects/pwa/omdb2/app/src/main/AndroidManifest.xml
queries
ADDED from [com.google.androidbrowserhelper:androidbrowserhelper:2.4.0] /Users/biche/.gradle/caches/transforms-2/files-2.1/2a4780e5ae3e94fb64dd0623d9799b3d/androidbrowserhelper-2.4.0/AndroidManifest.xml:26:5-34:15
intent#action:name:android.intent.action.VIEW+category:name:android.intent.category.BROWSABLE+data:scheme:https
ADDED from [com.google.androidbrowserhelper:androidbrowserhelper:2.4.0] /Users/biche/.gradle/caches/transforms-2/files-2.1/2a4780e5ae3e94fb64dd0623d9799b3d/androidbrowserhelper-2.4.0/AndroidManifest.xml:27:9-33:18
